<?xml version="1.0" encoding="utf-8"?>
<!-- Generator: Adobe Illustrator 17.1.0, SVG Export Plug-In . SVG Version: 6.00 Build 0)  -->
<!DOCTYPE svg PUBLIC "-//W3C//DTD SVG 1.1//EN" "http://www.w3.org/Graphics/SVG/1.1/DTD/svg11.dtd">
<svg version="1.1" id="Layer_1" xmlns="http://www.w3.org/2000/svg" xmlns:xlink="http://www.w3.org/1999/xlink" x="0px" y="0px"
	 viewBox="386.4 288 68 68" enable-background="new 386.4 288 68 68" xml:space="preserve">
<g>
	<circle fill="none" stroke="#FFFFFF" stroke-width="3" stroke-miterlimit="10" cx="420.4" cy="322" r="32.5"/>
	<g>
		<path fill="none" stroke="#FFFFFF" stroke-width="3" stroke-linecap="round" stroke-linejoin="round" stroke-miterlimit="10" d="
			M438.7,322.5c0,10.4-8.4,18.9-18.9,18.9c-10.4,0-18.9-8.4-18.9-18.9c0-10.4,8.4-18.9,18.9-18.9"/>
		<g>
			<path fill="#FFFFFF" d="M431.9,317.7c0,0.2,0,0.3,0,0.5c0,0.1,0,0.2-0.1,0.3c0,0.1-0.1,0.1-0.1,0.2c0,0-0.1,0.1-0.2,0.1h-6.9
				c-0.1,0-0.3,0-0.4,0s-0.2-0.1-0.2-0.1s-0.1-0.2-0.1-0.3c0-0.1,0-0.3,0-0.5s0-0.4,0-0.5s0.1-0.3,0.1-0.4c0.1-0.1,0.1-0.2,0.2-0.3
				c0.1-0.1,0.2-0.2,0.3-0.4l2.1-2.2c0.4-0.4,0.8-0.8,1-1.2c0.2-0.4,0.5-0.7,0.6-1c0.1-0.3,0.2-0.6,0.3-0.8c0.1-0.2,0.1-0.5,0.1-0.7
				s0-0.4-0.1-0.6c-0.1-0.2-0.2-0.3-0.3-0.5s-0.3-0.2-0.5-0.3c-0.2-0.1-0.4-0.1-0.7-0.1c-0.4,0-0.7,0-1,0.1
				c-0.3,0.1-0.5,0.2-0.7,0.3c-0.2,0.1-0.4,0.2-0.5,0.3c-0.1,0.1-0.3,0.1-0.3,0.1c-0.1,0-0.1,0-0.1-0.1s-0.1-0.1-0.1-0.2
				s0-0.2-0.1-0.3c0-0.1,0-0.3,0-0.5c0-0.1,0-0.3,0-0.4c0-0.1,0-0.2,0-0.3s0-0.1,0.1-0.2s0.1-0.1,0.2-0.2s0.2-0.2,0.4-0.3
				c0.2-0.1,0.5-0.2,0.8-0.3c0.3-0.1,0.6-0.2,1-0.3c0.4-0.1,0.8-0.1,1.1-0.1c0.6,0,1.2,0.1,1.6,0.2c0.5,0.2,0.9,0.4,1.2,0.7
				c0.3,0.3,0.5,0.6,0.7,1c0.2,0.4,0.2,0.8,0.2,1.3c0,0.4,0,0.8-0.1,1.2c-0.1,0.4-0.2,0.8-0.5,1.2c-0.2,0.4-0.6,0.9-1,1.5
				c-0.4,0.5-1,1.1-1.7,1.9l-1.4,1.4h4.8c0.1,0,0.1,0,0.2,0.1c0.1,0,0.1,0.1,0.1,0.2c0,0.1,0.1,0.2,0.1,0.3
				C431.9,317.4,431.9,317.6,431.9,317.7z"/>
			<path fill="#FFFFFF" d="M441.9,315.3c0,0.3,0,0.6-0.1,0.7c-0.1,0.2-0.2,0.2-0.3,0.2h-1.1v2.2c0,0.1,0,0.1-0.1,0.2
				c0,0-0.1,0.1-0.2,0.1s-0.2,0.1-0.4,0.1c-0.1,0-0.3,0-0.6,0c-0.2,0-0.4,0-0.6,0c-0.2,0-0.3,0-0.4-0.1c-0.1,0-0.2-0.1-0.2-0.1
				s-0.1-0.1-0.1-0.2v-2.2h-4.6c-0.1,0-0.2,0-0.2,0c-0.1,0-0.1-0.1-0.2-0.1c0-0.1-0.1-0.2-0.1-0.3c0-0.1,0-0.3,0-0.6
				c0-0.2,0-0.4,0-0.5s0-0.3,0-0.4s0.1-0.2,0.1-0.3c0-0.1,0.1-0.2,0.2-0.3l3.8-6.6c0-0.1,0.1-0.1,0.2-0.1s0.2-0.1,0.3-0.1
				c0.1,0,0.3,0,0.5-0.1s0.5,0,0.7,0c0.3,0,0.6,0,0.8,0s0.4,0,0.5,0.1c0.1,0,0.2,0.1,0.3,0.1c0.1,0,0.1,0.1,0.1,0.2v7.3h1.1
				c0.1,0,0.2,0.1,0.3,0.2S441.9,314.9,441.9,315.3z M438.1,308.7L438.1,308.7l-3.2,5.6h3.2V308.7z"/>
		</g>
		
			<polyline fill="none" stroke="#FFFFFF" stroke-width="3" stroke-linecap="round" stroke-linejoin="round" stroke-miterlimit="10" points="
			417,298 422.7,303.7 417,309.3 		"/>
		
			<line fill="none" stroke="#FFFFFF" stroke-width="3" stroke-linecap="round" stroke-linejoin="round" stroke-miterlimit="10" x1="420.2" y1="310.2" x2="420.2" y2="322.6"/>
		
			<line fill="none" stroke="#FFFFFF" stroke-width="3" stroke-linecap="round" stroke-linejoin="round" stroke-miterlimit="10" x1="420.2" y1="322.9" x2="429.9" y2="322.9"/>
		
			<line fill="none" stroke="#FFFFFF" stroke-width="3" stroke-linecap="round" stroke-linejoin="round" stroke-miterlimit="10" x1="420.2" y1="335.3" x2="420.2" y2="336.9"/>
		
			<line fill="none" stroke="#FFFFFF" stroke-width="3" stroke-linecap="round" stroke-linejoin="round" stroke-miterlimit="10" x1="407.3" y1="323" x2="405.8" y2="323"/>
	</g>
</g>
</svg>
