<?xml version="1.0" encoding="utf-8"?>
<!-- Generator: Adobe Illustrator 17.1.0, SVG Export Plug-In . SVG Version: 6.00 Build 0)  -->
<!DOCTYPE svg PUBLIC "-//W3C//DTD SVG 1.1//EN" "http://www.w3.org/Graphics/SVG/1.1/DTD/svg11.dtd">
<svg version="1.1" id="Layer_1" xmlns="http://www.w3.org/2000/svg" xmlns:xlink="http://www.w3.org/1999/xlink" x="0px" y="0px"
	 viewBox="386.5 288.2 68 68" enable-background="new 386.5 288.2 68 68" xml:space="preserve">
<g>
	<circle fill="#009DE0" cx="420.5" cy="322.2" r="32.5"/>
	<g>
		<rect x="403.5" y="307.8" fill="#FFFFFF" width="37" height="23"/>
		<polygon fill="#BE0C35" points="428.3,316.1 440.5,308.9 440.5,307.8 439.6,307.8 425.7,316.1 		"/>
		<polygon fill="#BE0C35" points="427.7,323 440.5,330.6 440.5,329.1 430.2,323 		"/>
		<polygon fill="#BE0C35" points="403.5,309.6 414.4,316.1 417,316.1 403.5,308.1 		"/>
		<polygon fill="#BE0C35" points="416.4,323 403.5,330.7 403.5,330.8 405.8,330.8 419,323 		"/>
		<polygon fill="#2D2B7D" points="438,307.8 425,307.8 425,315.6 		"/>
		<polygon fill="#2D2B7D" points="419.3,307.8 406.4,307.8 419.3,315.6 		"/>
		<polygon fill="#2D2B7D" points="440.5,316.1 440.5,310.9 431.7,316.1 		"/>
		<polygon fill="#2D2B7D" points="440.5,328.2 440.5,323 431.7,323 		"/>
		<polygon fill="#2D2B7D" points="407.1,330.8 419.3,330.8 419.3,323.6 		"/>
		<polygon fill="#2D2B7D" points="425,330.8 437.2,330.8 425,323.6 		"/>
		<polygon fill="#2D2B7D" points="403.5,323 403.5,328.4 412.6,323 		"/>
		<polygon fill="#2D2B7D" points="403.5,316.1 412.6,316.1 403.5,310.7 		"/>
		<polygon fill="#BE0C35" points="420.4,307.8 420.4,317.5 403.5,317.5 403.5,321.6 420.4,321.6 420.4,330.8 423.9,330.8 
			423.9,321.6 440.5,321.6 440.5,317.5 423.9,317.5 423.9,307.8 		"/>
	</g>
	<circle fill="none" stroke="#FFFFFF" stroke-width="3" stroke-miterlimit="10" cx="420.5" cy="322.2" r="32.5"/>
	
		<line fill="none" stroke="#FFFFFF" stroke-width="3" stroke-linecap="round" stroke-linejoin="round" stroke-miterlimit="10" x1="403.1" y1="304.4" x2="403.1" y2="343.1"/>
</g>
</svg>
