<?xml version="1.0" encoding="utf-8"?>
<!-- Generator: Adobe Illustrator 17.1.0, SVG Export Plug-In . SVG Version: 6.00 Build 0)  -->
<!DOCTYPE svg PUBLIC "-//W3C//DTD SVG 1.1//EN" "http://www.w3.org/Graphics/SVG/1.1/DTD/svg11.dtd">
<svg version="1.1" id="Layer_1" xmlns="http://www.w3.org/2000/svg" xmlns:xlink="http://www.w3.org/1999/xlink" x="0px" y="0px"
	 viewBox="386.4 264 68 68" enable-background="new 386.4 264 68 68" xml:space="preserve">
<g>
	<g>
		<circle fill="#B8D5BA" cx="420.4" cy="298" r="32.5"/>
		<g>
			<path fill="#FFFFFF" d="M418.6,285.3v-9h-6.3v9c0.4,2.8-5.3,9.1-5.3,13.3v18.7c0,1.7,1.4,3.1,3.1,3.1h10.7c1.7,0,3.1-1.4,3.1-3.1
				v-18.7C423.9,294.3,418.8,289.8,418.6,285.3z"/>
			<path fill="#C20012" d="M439.1,306.5c0,6.2-5,11.2-11.2,11.2c-2.2,0-4.3-0.6-6-1.8c-3.1-2-5.2-5.5-5.2-9.4s2-7.4,5.1-9.4
				c1.8-1.2,3.9-1.8,6.1-1.8C434.1,295.3,439.1,300.3,439.1,306.5z"/>
			<path fill="none" stroke="#FFED00" stroke-width="3" stroke-linecap="round" stroke-linejoin="round" stroke-miterlimit="10" d="
				M427.1,289.2c0,0,2.7,1,1.3,3.8s-0.6,3.5-0.2,4.4"/>
			<g>
				<path fill="#C20012" d="M419.6,276.5c0-0.7-0.9-1.3-2-1.3h-4.3c-1.1,0-2,0.6-2,1.3s0.9,1.3,2,1.3h4.3
					C418.7,277.8,419.6,277.2,419.6,276.5z"/>
			</g>
			<path fill="#249446" d="M438,291L438,291L438,291c-3.8-2.5-7.9-1-9.2,3.3l0,0C432.5,296.8,436.7,295.3,438,291z"/>
		</g>
	</g>
	<circle fill="none" stroke="#FFFFFF" stroke-width="3" stroke-miterlimit="10" cx="420.4" cy="298" r="32.5"/>
</g>
</svg>
