<?xml version="1.0" encoding="utf-8"?>
<!-- Generator: Adobe Illustrator 17.1.0, SVG Export Plug-In . SVG Version: 6.00 Build 0)  -->
<!DOCTYPE svg PUBLIC "-//W3C//DTD SVG 1.1//EN" "http://www.w3.org/Graphics/SVG/1.1/DTD/svg11.dtd">
<svg version="1.1" id="Layer_1" xmlns="http://www.w3.org/2000/svg" xmlns:xlink="http://www.w3.org/1999/xlink" x="0px" y="0px"
	 viewBox="386.5 288.4 68 68" enable-background="new 386.5 288.4 68 68" xml:space="preserve">
<g>
	<circle fill="#009DE0" cx="420.5" cy="322.4" r="32.5"/>
	<g>
		<g>
			<g>
				<defs>
					<rect id="SVGID_1_" x="403.5" y="308.1" width="37" height="23"/>
				</defs>
				<clipPath id="SVGID_2_">
					<use xlink:href="#SVGID_1_"  overflow="visible"/>
				</clipPath>
				<g clip-path="url(#SVGID_2_)">
					<g>
						<defs>
							<rect id="SVGID_3_" x="403.5" y="308.1" width="37" height="23"/>
						</defs>
						<defs>
							<rect id="SVGID_4_" x="403.5" y="308.1" width="37" height="23"/>
						</defs>
						<clipPath id="SVGID_5_">
							<use xlink:href="#SVGID_3_"  overflow="visible"/>
						</clipPath>
						<clipPath id="SVGID_6_" clip-path="url(#SVGID_5_)">
							<use xlink:href="#SVGID_4_"  overflow="visible"/>
						</clipPath>
						<rect x="403.5" y="308.1" clip-path="url(#SVGID_6_)" fill="#B6002B" width="37" height="23"/>
						<rect x="403.5" y="313.9" clip-path="url(#SVGID_6_)" fill="#EDBF23" width="37" height="11.5"/>
					</g>
				</g>
			</g>
			<circle fill="none" stroke="#FFFFFF" stroke-width="3" stroke-miterlimit="10" cx="420.5" cy="322.4" r="32.5"/>
			
				<line fill="none" stroke="#FFFFFF" stroke-width="3" stroke-linecap="round" stroke-linejoin="round" stroke-miterlimit="10" x1="403.1" y1="304.7" x2="403.1" y2="343.3"/>
		</g>
	</g>
</g>
</svg>
