<?xml version="1.0" encoding="utf-8"?>
<!-- Generator: Adobe Illustrator 17.1.0, SVG Export Plug-In . SVG Version: 6.00 Build 0)  -->
<!DOCTYPE svg PUBLIC "-//W3C//DTD SVG 1.1//EN" "http://www.w3.org/Graphics/SVG/1.1/DTD/svg11.dtd">
<svg version="1.1" id="Layer_1" xmlns="http://www.w3.org/2000/svg" xmlns:xlink="http://www.w3.org/1999/xlink" x="0px" y="0px"
	 viewBox="386.4 264 68 68" enable-background="new 386.4 264 68 68" xml:space="preserve">
<g>
	<g>
		<circle fill="#006BB3" cx="420.4" cy="298" r="32.5"/>
		<g>
			<g>
				<path fill="#E7B25C" d="M410.5,299.2l1.8-1.4c0,0,0.9-0.8,2.2-1.6c0,0,0.1,0,0.2-0.1c0.1,0,0.1-0.1,0.2-0.1s0.1,0,0.2,0
					s0.1,0,0.2,0s0.1,0,0.2,0.1c0.1,0,0.1,0,0.2,0.1c0.1,0,0.1,0.1,0.2,0.1l0.1,0.1l4,5.6l0.5-0.3l-1.7-5.1c0.2-0.1,0.3-0.3,0.5-0.4
					c-0.5-0.1-0.8-0.4-0.9-0.9c0-0.5,0.4-1,0.9-1.1c0.2,0,0.4,0,0.6,0c0.4,0,0.8,0,1.3-0.1c0.2,0,0.5,0,0.7-0.1
					c0.3,0,0.6,0.1,0.8,0.4l6.8,8.7c0.1,0.1,0.2,0.3,0.2,0.5v0.4c0,0.2,0,0.3-0.1,0.5c-0.6,1.5-1.5,2.7-2.9,3.8
					c-0.5,0.4-0.9,0.7-1.4,1.1l-7.5,5.9c-0.7,0.6-1.5,0.8-2.3,0.7c-0.4,0-0.7-0.2-1-0.3c-0.8-0.5-0.9-1.6-0.6-2.3
					c-0.6,0.5-2.2,0-2.7-0.3c-0.4-0.3-1-1.7-0.5-2.4c-0.7,0.7-2,0.7-2.6-0.1c-0.4-0.4-0.8-1.5-0.4-2.2c-0.8,0.5-2.3-0.2-2.8-0.8
					l-0.4-0.6c-0.7-0.9-0.7-2.1,0-3c0.3-0.4,0.6-0.7,1-1C407.1,301.7,408.8,300.5,410.5,299.2z"/>
				<path fill="#F5DBAA" d="M432.8,303.1c-0.3-0.5,0.6-0.6,0.2-1c-1.8-1.8-3.6-3.6-5.4-5.4l-1.9-1.9c0,0-1-1.1-2.4-2.2
					c-0.1,0-0.1-0.1-0.2-0.1s-0.1-0.1-0.2-0.1c-0.1,0-0.2,0-0.2,0c-0.1,0-0.1,0-0.2,0s-0.2,0-0.2,0.1c-0.1,0-0.1,0-0.2,0.1
					c-0.1,0-0.1,0.1-0.2,0.2l-0.1,0.1l-5.7,6.2l-0.5-0.5l2.8-5.9c-0.2-0.2-0.3-0.4-0.5-0.5c0.6,0,1.1-0.4,1.2-0.9
					c0.1-0.6-0.3-1.3-0.9-1.4c-0.2,0-0.4-0.1-0.7-0.1c-0.5,0-1-0.1-1.6-0.3c-0.3-0.1-0.6-0.1-0.9-0.2c-0.4-0.1-0.8,0.1-1.1,0.3
					l-9.5,9.5c-0.2,0.2-0.3,0.4-0.3,0.6l-0.1,0.4c0,0.2,0,0.4,0,0.6c0.4,1.9,1.4,3.5,2.9,4.9c0.5,0.5,1,1,1.5,1.5l8.2,8.2
					c0.8,0.8,1.7,1.2,2.6,1.2c0.4,0,0.9-0.1,1.3-0.3c1.1-0.5,1.4-1.8,1.1-2.7c0.7,0.6,2.7,0.4,3.3,0c0.6-0.3,1.5-1.9,0.9-2.8
					c0.7,0.9,2.3,1.1,3.2,0.3c0.5-0.5,1.2-1.7,0.8-2.6c0.9,0.7,2.5,0.4,3.2-0.3l0.6-0.6C434.2,306.3,433.5,304.3,432.8,303.1z"/>
				<path fill="#86C5F0" d="M403.1,300.2L403.1,300.2c-0.3,0-0.6-0.1-0.8-0.3l-4.2-4.2c-0.5-0.5-0.5-1.2,0-1.7l10.1-10.1
					c0.5-0.5,1.2-0.5,1.7,0l4.2,4.2c0.2,0.2,0.3,0.5,0.3,0.8c0,0.3-0.1,0.6-0.3,0.8L404,299.8C403.8,300.1,403.5,300.2,403.1,300.2z
					"/>
				<path fill="#E7B25C" d="M436.2,297c-0.1-0.2-0.2-0.4-0.3-0.6l-9.5-9.5c-0.3-0.3-0.7-0.4-1.1-0.3c-0.3,0.1-0.6,0.1-0.9,0.2
					c-0.6,0.1-1.1,0.2-1.6,0.3c-0.5,0-1.2,0.4-4.3,2c-0.7,0.4-1.6,0.8-1.8,0.9c-0.3,0.1-0.5,0.3-0.6,0.6l-3.8,7.9
					c-0.2,0.5-0.1,1.1,0.3,1.4l2.1,1.8c0.5,0.4,1.2,0.4,1.7-0.1l5.7-6.2c0.8,0.7,1.3,1.3,1.3,1.3l2,1.9c1.7,1.7,3.5,3.5,5.2,5.2
					c0,0,0,0,0.1,0c0.1,0.1,0.1,0.2,0.2,0.4c0.2,0.2,0.5,0.4,0.9,0.4c0.3,0,0.6-0.1,0.8-0.3c0.6-0.5,2-2.4,2.4-3
					c0.7-1,1.2-2.1,1.4-3.3c0-0.2,0-0.4,0-0.6L436.2,297z"/>
				<path fill="#FFFFFF" d="M437.1,297.7c-0.3,0-0.6-0.1-0.8-0.3l-10.1-10.1c-0.2-0.2-0.3-0.5-0.3-0.8s0.1-0.6,0.3-0.8l4.2-4.2
					c0.5-0.5,1.2-0.5,1.7,0l10.1,10.1c0.5,0.5,0.5,1.2,0,1.7l-4.2,4.2C437.7,297.6,437.4,297.7,437.1,297.7z"/>
			</g>
			<path fill="#9D97C8" d="M441.6,295.8c0,0.6-0.4,1-1,1h-1c-0.6,0-1-0.4-1-1v-1c0-0.6,0.4-1,1-1h1c0.6,0,1,0.4,1,1V295.8z"/>
			<path fill="#FFFFFF" d="M401.9,297.3c0,0.6-0.4,1-1,1h-1c-0.6,0-1-0.4-1-1v-1c0-0.6,0.4-1,1-1h1c0.6,0,1,0.4,1,1V297.3z"/>
		</g>
	</g>
	<circle fill="none" stroke="#FFFFFF" stroke-width="3" stroke-miterlimit="10" cx="420.4" cy="298" r="32.5"/>
</g>
</svg>
